<svg width="18" height="18" viewBox="0 0 18 18" fill="none" xmlns="http://www.w3.org/2000/svg">
<path d="M9 18C4.032 18 -1.68876e-06 13.959 -1.42051e-06 9L0.00345852 8.74821C0.136945 3.89648 4.1162 -3.86897e-06 9 -3.17894e-06C13.959 -2.47829e-06 18 4.032 18 9C18 13.959 13.959 18 9 18ZM9 11.511C9.18 11.511 9.351 11.439 9.477 11.313L12.6 8.172C12.735 8.046 12.798 7.875 12.798 7.704C12.798 7.524 12.735 7.353 12.6 7.218C12.33 6.957 11.907 6.957 11.646 7.227L9 9.882L6.354 7.227C6.093 6.957 5.661 6.957 5.4 7.218C5.13 7.488 5.13 7.911 5.4 8.172L8.523 11.313C8.649 11.439 8.82 11.511 9 11.511Z" fill="#160041"/>
</svg>
