<svg width="73" height="71" viewBox="0 0 73 71" fill="none" xmlns="http://www.w3.org/2000/svg">
<path fill-rule="evenodd" clip-rule="evenodd" d="M28.0286 2.24316C26.9338 1.8725 25.7341 1.8811 24.6617 2.26142L24.6593 2.26228L4.80313 9.18818C4.8031 9.18819 4.80316 9.18817 4.80313 9.18818C2.77999 9.89432 1.43929 11.7718 1.45002 13.8517C1.45002 13.8518 1.45001 13.8516 1.45002 13.8517L1.57706 33.7781C1.57706 33.7781 1.57706 33.7781 1.57706 33.7781C1.61557 39.7083 3.84821 45.427 7.86952 49.8837C9.69556 51.9091 12.0443 53.6595 15.0744 55.2311M15.0744 55.2311L25.89 60.827C26.1491 60.9623 26.4399 61.0316 26.7307 61.0294C27.0229 61.027 27.3128 60.9554 27.5771 60.8164C27.5774 60.8163 27.5777 60.8161 27.5781 60.8159L38.2894 55.09C41.2862 53.4925 43.6146 51.7162 45.4233 49.6619C49.3794 45.1591 51.5379 39.4144 51.4994 33.4931L51.3725 13.5515C51.3615 11.4754 49.9966 9.61051 47.9623 8.93123L28.0299 2.2436L28.0286 2.24316M28.3487 1.29578C27.0436 0.854056 25.614 0.863025 24.3288 1.31846C24.3284 1.31862 24.3279 1.31878 24.3275 1.31894L4.4737 8.244C2.05897 9.08677 0.436863 11.3376 0.450031 13.8572L0.577081 33.7846C0.617188 39.963 2.94349 45.9171 7.12707 50.5536C9.04965 52.686 11.5016 54.5046 14.6144 56.1191L25.427 61.7133C25.4274 61.7135 25.4278 61.7137 25.4281 61.7139C25.8338 61.9256 26.2862 62.0328 26.7386 62.0293C27.1898 62.0257 27.6373 61.9149 28.044 61.7008L28.0467 61.6993L38.7603 55.9721C41.8399 54.3305 44.2704 52.4847 46.1742 50.3223C50.2899 45.6377 52.5395 39.6563 52.4994 33.4866L52.3725 13.5457C52.3592 11.0282 50.707 8.79346 48.2791 7.98272L28.3487 1.29578C28.3485 1.29571 28.3489 1.29584 28.3487 1.29578Z" fill="#160041"/>
<path d="M38.3263 22.6383C37.4344 21.7814 35.9984 21.7873 35.1187 22.656L25.0031 32.6267L20.8614 28.6455C19.9696 27.7886 18.5366 27.7974 17.6538 28.6661C16.7741 29.5348 16.7831 30.9306 17.675 31.7875L23.4281 37.3235C23.8755 37.7534 24.456 37.9654 25.0364 37.9597C25.6169 37.9566 26.1943 37.7387 26.6357 37.3029L38.3444 25.7597C39.2242 24.891 39.2151 23.4952 38.3263 22.6383Z" fill="#160041"/>
<path d="M58.5049 31C59.0198 31 59.4158 31.42 59.4158 31.92V38.36C59.4158 42.02 62.4059 45.02 66.0297 45.04C67.5347 45.04 68.7228 45.06 69.6337 45.06L69.971 45.0585C70.5798 45.0539 71.3993 45.04 72.1089 45.04C72.604 45.04 73 45.44 73 45.94V62.02C73 66.98 69.0198 71 64.1089 71H48.3465C43.198 71 39 66.78 39 61.58V40.02C39 35.06 43 31 47.9307 31H58.5049ZM60.6238 56.8H49.8515C49.0396 56.8 48.3663 57.46 48.3663 58.28C48.3663 59.1 49.0396 59.78 49.8515 59.78H60.6238C61.4356 59.78 62.1089 59.1 62.1089 58.28C62.1089 57.46 61.4356 56.8 60.6238 56.8ZM56.5446 46.8H49.8515C49.0396 46.8 48.3663 47.48 48.3663 48.3C48.3663 49.12 49.0396 49.78 49.8515 49.78H56.5446C57.3564 49.78 58.0297 49.12 58.0297 48.3C58.0297 47.48 57.3564 46.8 56.5446 46.8ZM62.3014 32.812C62.3014 31.95 63.337 31.522 63.9291 32.144C66.0697 34.392 69.8103 38.322 71.9014 40.518C72.4796 41.124 72.0558 42.13 71.2222 42.132C69.5945 42.138 67.6756 42.132 66.2954 42.118C64.1053 42.118 62.3014 40.296 62.3014 38.084V32.812Z" fill="url(#paint0_linear)"/>
<defs>
<linearGradient id="paint0_linear" x1="55.9993" y1="70.9974" x2="55.9993" y2="30.9976" gradientUnits="userSpaceOnUse">
<stop stop-color="#20B038"/>
<stop offset="1" stop-color="#60D66A"/>
</linearGradient>
</defs>
</svg>
