<svg width="76" height="76" viewBox="0 0 76 76" fill="none" xmlns="http://www.w3.org/2000/svg">
<path d="M38 76C58.9868 76 76 58.9868 76 38C76 17.0132 58.9868 0 38 0C17.0132 0 0 17.0132 0 38C0 58.9868 17.0132 76 38 76Z" fill="url(#paint0_linear)"/>
<path d="M49.385 34.4257L36.367 47.4542C36.1542 47.6675 35.9015 47.8368 35.6232 47.9523C35.345 48.0679 35.0467 48.1273 34.7455 48.1273C34.4443 48.1273 34.146 48.0679 33.8678 47.9523C33.5895 47.8368 33.3368 47.6675 33.124 47.4542L26.615 40.94C26.4021 40.7268 26.2331 40.4738 26.1179 40.1954C26.0027 39.917 25.9434 39.6185 25.9434 39.3172C25.9434 39.0158 26.0027 38.7173 26.1179 38.4389C26.2331 38.1605 26.4021 37.9075 26.615 37.6944C26.8279 37.4812 27.0807 37.3122 27.359 37.1969C27.6372 37.0815 27.9354 37.0222 28.2365 37.0222C28.5376 37.0222 28.8358 37.0815 29.114 37.1969C29.3923 37.3122 29.6451 37.4812 29.858 37.6944L34.734 42.5743L46.119 31.1802C46.3318 30.9668 46.5845 30.7975 46.8628 30.682C47.141 30.5664 47.4393 30.507 47.7405 30.507C48.0417 30.507 48.34 30.5664 48.6182 30.682C48.8965 30.7975 49.1492 30.9668 49.362 31.1802C50.282 32.0779 50.282 33.528 49.385 34.4257ZM19.6 38.5C19.6 33.1367 21.946 28.3259 25.626 24.9652L29.145 28.487C29.3071 28.6461 29.5127 28.7535 29.7358 28.7959C29.9588 28.8382 30.1894 28.8135 30.3985 28.7249C30.6076 28.6363 30.7858 28.4877 30.9106 28.2979C31.0354 28.1081 31.1013 27.8856 31.1 27.6583V17.7834C31.1 17.1389 30.594 16.6325 29.95 16.6325H20.083C19.048 16.6325 18.542 17.8755 19.278 18.5891L22.36 21.6966C17.852 25.8859 15 31.8477 15 38.5C15 49.4337 22.636 58.5951 32.848 60.9429C34.297 61.2652 35.7 60.1833 35.7 58.6871C35.7 57.6053 34.941 56.6845 33.883 56.4313C25.718 54.5668 19.6 47.247 19.6 38.5ZM61 38.5C61 27.5663 53.364 18.4049 43.152 16.0571C41.703 15.7348 40.3 16.8167 40.3 18.3129C40.3 19.3947 41.059 20.3155 42.117 20.5687C50.282 22.4332 56.4 29.753 56.4 38.5C56.4 43.8633 54.054 48.6741 50.374 52.0348L46.855 48.513C46.6929 48.3539 46.4873 48.2465 46.2642 48.2041C46.0412 48.1618 45.8106 48.1865 45.6015 48.2751C45.3924 48.3637 45.2142 48.5123 45.0894 48.7021C44.9646 48.8919 44.8987 49.1144 44.9 49.3417V59.2166C44.9 59.8611 45.406 60.3675 46.05 60.3675H55.917C56.952 60.3675 57.458 59.1245 56.722 58.4109L53.64 55.3034C58.148 51.1141 61 45.1523 61 38.5Z" fill="white"/>
<defs>
<linearGradient id="paint0_linear" x1="37.9985" y1="75.995" x2="37.9985" y2="-0.00456164" gradientUnits="userSpaceOnUse">
<stop stop-color="#20B038"/>
<stop offset="1" stop-color="#60D66A"/>
</linearGradient>
</defs>
</svg>
