<svg width="65" height="58" viewBox="0 0 65 58" fill="none" xmlns="http://www.w3.org/2000/svg">
<path d="M3.1743 58H61.8257C64.2629 58 65.7822 55.3259 64.5794 53.1673L35.2379 1.61815C34.9623 1.12663 34.5638 0.718054 34.083 0.433869C33.6021 0.149684 33.056 0 32.5 0C31.944 0 31.3979 0.149684 30.917 0.433869C30.4362 0.718054 30.0377 1.12663 29.7621 1.61815L0.420567 53.1673C-0.782214 55.3259 0.737088 58 3.1743 58ZM32.5158 38.6691C30.775 38.6691 29.3506 37.2193 29.3506 35.4473V25.7818C29.3506 24.0098 30.775 22.56 32.5158 22.56C34.2567 22.56 35.681 24.0098 35.681 25.7818V35.4473C35.681 37.2193 34.2567 38.6691 32.5158 38.6691ZM35.681 45.1127C35.681 46.8847 34.2567 48.3345 32.5158 48.3345C30.775 48.3345 29.3506 46.8847 29.3506 45.1127C29.3506 43.3407 30.775 41.8909 32.5158 41.8909C34.2567 41.8909 35.681 43.3407 35.681 45.1127Z" fill="url(#paint0_linear)"/>
<defs>
<linearGradient id="paint0_linear" x1="-22.3925" y1="-34.974" x2="-1.1141" y2="66.3626" gradientUnits="userSpaceOnUse">
<stop stop-color="#FE38BF"/>
<stop offset="1" stop-color="#FFB573"/>
</linearGradient>
</defs>
</svg>
