<svg width="163" height="83" viewBox="0 0 163 83" fill="none" xmlns="http://www.w3.org/2000/svg">
<path d="M9.02036 56.1543C9.84576 56.1543 10.622 56.3213 11.3491 56.6554C12.0763 56.9699 12.7052 57.412 13.2358 57.982C13.786 58.5322 14.2184 59.1906 14.5328 59.957C14.8472 60.7038 15.0045 61.5095 15.0045 62.3742C15.0045 63.2389 14.8472 64.0545 14.5328 64.8209C14.2184 65.5677 13.786 66.2261 13.2358 66.796C12.7052 67.3659 12.0763 67.8179 11.3491 68.152C10.622 68.4664 9.84576 68.6236 9.02036 68.6236H4.45122V77.0544H0V56.1543H9.02036ZM8.4308 64.5556C9.00071 64.5556 9.49201 64.3493 9.90471 63.9366C10.3371 63.5042 10.5532 62.9834 10.5532 62.3742C10.5532 61.7847 10.3371 61.2835 9.90471 60.8708C9.49201 60.4385 9.00071 60.2223 8.4308 60.2223H4.45122V64.5556H8.4308Z" fill="white"/>
<path d="M30.6071 62.4332V77.0544H27.0992L26.6865 75.4921C26.1165 76.2585 25.4287 76.7695 24.623 77.0249C23.8369 77.2804 23.0115 77.4082 22.1468 77.4082C21.1052 77.4082 20.1423 77.2116 19.2579 76.8186C18.3932 76.4059 17.6366 75.8556 16.9881 75.1678C16.3396 74.4603 15.8286 73.6448 15.4552 72.7211C15.1015 71.7778 14.9246 70.7755 14.9246 69.7143C14.9246 68.6531 15.1015 67.6607 15.4552 66.737C15.8286 65.7937 16.3396 64.9781 16.9881 64.2903C17.6366 63.5828 18.3932 63.0326 19.2579 62.6395C20.1423 62.2268 21.1052 62.0205 22.1468 62.0205C23.0901 62.0205 23.9548 62.1679 24.7409 62.4627C25.527 62.7574 26.1755 63.2291 26.6865 63.8776L27.0992 62.4332H30.6071ZM26.5391 69.7733C26.5391 69.0068 26.431 68.3681 26.2148 67.8572C26.0183 67.3266 25.7432 66.9041 25.3894 66.5896C25.0553 66.2555 24.6525 66.0197 24.1808 65.8821C23.7288 65.7249 23.2375 65.6463 22.7069 65.6463C22.1763 65.6463 21.6751 65.7544 21.2035 65.9706C20.7515 66.1867 20.3486 66.4815 19.9949 66.8549C19.6411 67.2087 19.366 67.641 19.1695 68.152C18.973 68.6433 18.8747 69.1641 18.8747 69.7143C18.8747 70.2842 18.973 70.8148 19.1695 71.3061C19.366 71.7975 19.6411 72.2298 19.9949 72.6032C20.3486 72.9569 20.7515 73.2419 21.2035 73.4581C21.6751 73.6742 22.1763 73.7823 22.7069 73.7823C23.7681 73.7823 24.6623 73.4581 25.3894 72.8095C26.1362 72.1414 26.5194 71.1293 26.5391 69.7733Z" fill="white"/>
<path d="M37.9106 71.8073C37.9106 72.4951 38.1169 73.0257 38.5296 73.3991C38.962 73.7725 39.5221 73.9592 40.2099 73.9592C40.7602 73.9592 41.3104 73.8511 41.8607 73.6349V77.0544C41.3694 77.2116 40.8486 77.3394 40.2983 77.4376C39.7481 77.5555 39.1978 77.6145 38.6476 77.6145C38.0187 77.6145 37.4193 77.5359 36.8494 77.3787C36.2795 77.2215 35.7685 76.9562 35.3165 76.5828C34.8645 76.1897 34.5009 75.6788 34.2258 75.0499C33.9703 74.4014 33.8426 73.6055 33.8426 72.6621V66.059H31.7496V63.3175L33.8426 62.4332V59.1611H37.9106V62.4332H41.8607V66.059H37.9106V71.8073Z" fill="white"/>
<path d="M50.8892 62.0205C51.9898 62.0205 52.992 62.2465 53.896 62.6985C54.8 63.1308 55.5763 63.7106 56.2248 64.4377C56.8733 65.1452 57.3745 65.9706 57.7282 66.9139C58.0819 67.8375 58.2588 68.7907 58.2588 69.7733C58.2588 70.3628 58.1802 70.9917 58.023 71.6599H47.5877C47.9807 72.3281 48.5408 72.898 49.2679 73.3696C49.9951 73.8216 50.7812 74.0476 51.6262 74.0476C52.4712 74.0476 53.2082 73.9788 53.8371 73.8413C54.4856 73.7037 55.0948 73.5268 55.6647 73.3107L57.0207 75.8163C56.2936 76.3273 55.4584 76.7203 54.5151 76.9955C53.5914 77.2706 52.599 77.4082 51.5378 77.4082C50.3783 77.4082 49.2974 77.2116 48.2952 76.8186C47.2929 76.4059 46.4184 75.8556 45.6716 75.1678C44.9248 74.48 44.3352 73.6644 43.9029 72.7211C43.4705 71.7778 43.2544 70.7755 43.2544 69.7143C43.2544 68.6728 43.4509 67.6901 43.8439 66.7665C44.237 65.8232 44.7774 65.0076 45.4652 64.3198C46.1727 63.6123 46.9883 63.0522 47.9119 62.6395C48.8356 62.2268 49.828 62.0205 50.8892 62.0205ZM54.2203 68.5057C53.9845 67.6607 53.5619 66.9728 52.9527 66.4422C52.3435 65.9116 51.6557 65.6463 50.8892 65.6463C50.1031 65.6463 49.3858 65.9116 48.7373 66.4422C48.1085 66.9728 47.6761 67.6607 47.4403 68.5057H54.2203Z" fill="white"/>
<path d="M67.5636 62.4332C68.1138 62.4332 68.7231 62.5118 69.3912 62.669C70.0594 62.8262 70.6883 63.121 71.2779 63.5534C71.8674 63.9857 72.3587 64.5851 72.7518 65.3515C73.1645 66.118 73.3708 67.1104 73.3708 68.3288V77.0544H69.2733V68.4762C69.2733 68.0242 69.1947 67.641 69.0375 67.3266C68.8999 67.0121 68.7034 66.7665 68.4479 66.5896C68.2121 66.3931 67.937 66.2555 67.6225 66.1769C67.3081 66.0787 66.9937 66.0295 66.6792 66.0295C66.4238 66.0295 66.1388 66.0787 65.8244 66.1769C65.5296 66.2555 65.2446 66.3931 64.9695 66.5896C64.714 66.7861 64.4978 67.0416 64.321 67.3561C64.1441 67.6705 64.0557 68.0439 64.0557 68.4762V77.0544H59.9877V62.4332H63.4661L64.0557 63.5534C64.5273 63.2193 65.0579 62.954 65.6475 62.7574C66.2371 62.5413 66.8758 62.4332 67.5636 62.4332Z" fill="white"/>
<path d="M81.1395 71.8073C81.1395 72.4951 81.3458 73.0257 81.7585 73.3991C82.1908 73.7725 82.7509 73.9592 83.4388 73.9592C83.989 73.9592 84.5393 73.8511 85.0895 73.6349V77.0544C84.5982 77.2116 84.0775 77.3394 83.5272 77.4376C82.9769 77.5555 82.4267 77.6145 81.8764 77.6145C81.2475 77.6145 80.6481 77.5359 80.0782 77.3787C79.5083 77.2215 78.9974 76.9562 78.5454 76.5828C78.0934 76.1897 77.7298 75.6788 77.4547 75.0499C77.1992 74.4014 77.0714 73.6055 77.0714 72.6621V66.059H74.9785V63.3175L77.0714 62.4332V59.1611H81.1395V62.4332H85.0895V66.059H81.1395V71.8073Z" fill="white"/>
<path d="M100.995 66.2268C101.82 66.7181 102.449 67.347 102.881 68.1134C103.314 68.8799 103.53 69.7642 103.53 70.7665C103.53 71.7098 103.304 72.5941 102.852 73.4195C102.4 74.2253 101.761 74.9426 100.936 75.5714C100.189 76.1414 99.334 76.5835 98.3711 76.898C97.4278 77.1928 96.4255 77.35 95.3643 77.3696C94.3031 77.3696 93.291 77.2222 92.328 76.9275C91.3651 76.6327 90.5102 76.1905 89.7634 75.6009C88.6432 74.7559 87.8768 73.734 87.4641 72.5352L91.5911 70.6191C91.5911 70.8156 91.6599 71.0613 91.7974 71.3561C91.935 71.6508 92.1512 71.9358 92.4459 72.2109C92.7407 72.4861 93.1239 72.7219 93.5956 72.9184C94.0673 73.1149 94.647 73.2132 95.3348 73.2132C95.8851 73.2132 96.3666 73.1444 96.7793 73.0068C97.2116 72.8693 97.5653 72.7022 97.8405 72.5057C98.1353 72.2895 98.3514 72.0537 98.489 71.7982C98.6462 71.5231 98.7248 71.248 98.7248 70.9728C98.7248 70.6584 98.6167 70.3636 98.4006 70.0885C98.204 69.8134 97.8896 69.5972 97.4573 69.44C96.6712 69.1648 95.836 68.9388 94.9516 68.762C94.0869 68.5654 93.2419 68.3296 92.4165 68.0545C91.5911 67.7597 90.8246 67.3765 90.1172 66.9048C89.4097 66.4332 88.8496 65.7748 88.4369 64.9298C88.0635 64.183 87.8768 63.3871 87.8768 62.542C87.8768 61.5987 88.093 60.6849 88.5253 59.8006C88.9773 58.9162 89.5865 58.1694 90.353 57.5602C91.0801 56.9903 91.8957 56.5579 92.7997 56.2632C93.7037 55.9487 94.6568 55.7915 95.6591 55.7915C96.6613 55.7915 97.6145 55.9389 98.5185 56.2337C99.4421 56.5285 100.268 56.9608 100.995 57.5307C101.702 58.0613 102.262 58.6804 102.675 59.3879L99.3144 61.6872C98.9017 61.1173 98.3809 60.6653 97.752 60.3312C97.1428 59.9774 96.455 59.8006 95.6886 59.8006C94.6273 59.8006 93.8019 60.0364 93.2124 60.508C92.6425 60.9797 92.3575 61.5987 92.3575 62.3652C92.3575 62.7189 92.5147 63.0333 92.8292 63.3085C93.1633 63.5836 93.5858 63.8293 94.0967 64.0454C94.6273 64.2616 95.2169 64.4581 95.8654 64.635C96.514 64.7922 97.1526 64.9593 97.7815 65.1361C98.43 65.2933 99.0393 65.4604 99.6092 65.6373C100.179 65.8141 100.641 66.0107 100.995 66.2268Z" fill="white"/>
<path d="M112.783 61.9525C113.825 61.9525 114.807 62.1588 115.731 62.5715C116.655 62.9646 117.46 63.5148 118.148 64.2223C118.836 64.9101 119.377 65.7257 119.77 66.669C120.182 67.5927 120.389 68.5851 120.389 69.6463C120.389 70.7075 120.182 71.7098 119.77 72.6531C119.377 73.5767 118.836 74.3923 118.148 75.0998C117.46 75.7876 116.655 76.3379 115.731 76.7506C114.807 77.1436 113.825 77.3401 112.783 77.3401C111.722 77.3401 110.73 77.1436 109.806 76.7506C108.882 76.3379 108.077 75.7876 107.389 75.0998C106.701 74.3923 106.151 73.5767 105.738 72.6531C105.345 71.7098 105.148 70.7075 105.148 69.6463C105.148 68.5851 105.345 67.5927 105.738 66.669C106.151 65.7257 106.701 64.9101 107.389 64.2223C108.077 63.5148 108.882 62.9646 109.806 62.5715C110.73 62.1588 111.722 61.9525 112.783 61.9525ZM112.783 73.7733C113.275 73.7733 113.727 73.675 114.139 73.4785C114.572 73.282 114.945 73.0167 115.259 72.6826C115.594 72.3288 115.849 71.9161 116.026 71.4445C116.222 70.9532 116.321 70.4127 116.321 69.8232C116.321 69.2336 116.222 68.6834 116.026 68.1724C115.849 67.6614 115.594 67.2193 115.259 66.8459C114.945 66.4528 114.572 66.1482 114.139 65.932C113.727 65.6962 113.275 65.5783 112.783 65.5783C112.292 65.5783 111.83 65.6962 111.398 65.932C110.965 66.1482 110.582 66.4528 110.248 66.8459C109.934 67.2193 109.678 67.6614 109.482 68.1724C109.305 68.6834 109.216 69.2336 109.216 69.8232C109.216 70.4127 109.305 70.9532 109.482 71.4445C109.678 71.9161 109.934 72.3288 110.248 72.6826C110.582 73.0167 110.965 73.282 111.398 73.4785C111.83 73.675 112.292 73.7733 112.783 73.7733Z" fill="white"/>
<path d="M125.486 64.3992C125.683 64.0847 125.909 63.79 126.164 63.5148C126.42 63.22 126.724 62.9646 127.078 62.7484C127.432 62.5126 127.835 62.3259 128.287 62.1883C128.739 62.0507 129.25 61.982 129.82 61.982C130.488 61.982 131.264 62.0999 132.148 62.3357L131.765 65.9615C131.549 65.9222 131.333 65.8731 131.117 65.8141C130.94 65.7748 130.743 65.7453 130.527 65.7257C130.311 65.6864 130.114 65.6667 129.938 65.6667C129.309 65.6667 128.719 65.7552 128.169 65.932C127.638 66.1089 127.176 66.3546 126.783 66.669C126.39 66.9834 126.076 67.3667 125.84 67.8187C125.604 68.251 125.486 68.7227 125.486 69.2336V76.9864H121.418V62.3652H125.103L125.486 64.3992Z" fill="white"/>
<path d="M144.35 62.3652H147.828V72.0341C147.828 73.1542 147.808 74.1565 147.769 75.0408C147.749 75.9055 147.681 76.6818 147.563 77.3696C147.445 78.0771 147.248 78.706 146.973 79.2562C146.718 79.8065 146.354 80.3175 145.882 80.7891C145.018 81.6342 144.045 82.2139 142.964 82.5283C141.903 82.8428 140.783 83 139.604 83C138.601 83 137.658 82.8821 136.774 82.6462C135.889 82.4104 135.093 82.0862 134.386 81.6735V77.8708C134.563 78.1459 134.808 78.3915 135.123 78.6077C135.457 78.8239 135.83 79.0106 136.243 79.1678C136.675 79.325 137.127 79.4429 137.599 79.5215C138.09 79.6198 138.582 79.6689 139.073 79.6689C139.722 79.6689 140.331 79.5805 140.901 79.4036C141.471 79.2464 141.962 78.9811 142.375 78.6077C142.807 78.2343 143.141 77.7627 143.377 77.1928C143.632 76.6425 143.76 75.9645 143.76 75.1588V74.864C143.19 75.3749 142.532 75.7876 141.785 76.1021C141.038 76.3968 140.223 76.5442 139.338 76.5442C138.356 76.5442 137.442 76.3575 136.597 75.9841C135.771 75.5911 135.054 75.0703 134.445 74.4218C133.836 73.7536 133.354 72.9774 133 72.093C132.666 71.189 132.499 70.2359 132.499 69.2336C132.499 68.2314 132.666 67.288 133 66.4037C133.354 65.5193 133.836 64.7529 134.445 64.1044C135.054 63.4362 135.771 62.9154 136.597 62.542C137.442 62.149 138.356 61.9525 139.338 61.9525C140.262 61.9525 141.097 62.0802 141.844 62.3357C142.591 62.5715 143.229 62.9547 143.76 63.4853L144.35 62.3652ZM140.164 72.9184C140.793 72.9184 141.333 72.8103 141.785 72.5941C142.237 72.3583 142.61 72.0635 142.905 71.7098C143.2 71.3561 143.416 70.963 143.554 70.5307C143.691 70.0983 143.76 69.6758 143.76 69.2631C143.76 68.8111 143.681 68.3689 143.524 67.9366C143.387 67.4846 143.17 67.0915 142.876 66.7574C142.581 66.4037 142.208 66.1187 141.756 65.9026C141.304 65.6864 140.773 65.5783 140.164 65.5783C139.653 65.5783 139.181 65.6766 138.749 65.8731C138.316 66.0696 137.933 66.3349 137.599 66.669C137.285 67.0031 137.029 67.3961 136.833 67.8481C136.656 68.2805 136.567 68.7521 136.567 69.2631C136.567 69.774 136.656 70.2555 136.833 70.7075C137.029 71.1399 137.285 71.5231 137.599 71.8572C137.933 72.1913 138.316 72.4566 138.749 72.6531C139.181 72.83 139.653 72.9184 140.164 72.9184Z" fill="white"/>
<path d="M158.608 62.3652H162.676V76.9864H159.197L158.608 75.8662C158.136 76.2003 157.596 76.4755 156.986 76.6916C156.397 76.8881 155.758 76.9864 155.07 76.9864C154.54 76.9864 153.931 76.9078 153.243 76.7506C152.575 76.5934 151.946 76.2986 151.356 75.8662C150.767 75.4339 150.265 74.8345 149.853 74.0681C149.46 73.3016 149.263 72.3092 149.263 71.0907V62.3652H153.361V70.9434C153.361 71.3954 153.429 71.7786 153.567 72.093C153.724 72.4074 153.921 72.6629 154.157 72.8594C154.412 73.0363 154.697 73.1739 155.011 73.2721C155.326 73.3507 155.65 73.3901 155.984 73.3901C156.24 73.3901 156.515 73.3507 156.81 73.2721C157.124 73.1739 157.409 73.0265 157.664 72.83C157.94 72.6334 158.166 72.378 158.343 72.0635C158.519 71.7491 158.608 71.3757 158.608 70.9434V62.3652Z" fill="white"/>
<path fill-rule="evenodd" clip-rule="evenodd" d="M65.6165 3.87538C65.6165 1.73507 67.3511 0 69.4909 0H83.1234C91.0486 0 97.4733 6.42617 97.4733 14.3533C97.4733 22.2803 91.0486 28.7065 83.1234 28.7065H78.7611L72.8476 38.9669C71.9716 40.4869 70.1839 41.2286 68.4894 40.7751C66.7949 40.3215 65.6165 38.7859 65.6165 37.0314V3.87538ZM73.3654 7.75076V22.5844C74.0876 21.5688 75.2613 20.9558 76.5224 20.9558H83.1234C86.769 20.9558 89.7244 17.9997 89.7244 14.3533C89.7244 10.7068 86.769 7.75076 83.1234 7.75076H73.3654Z" fill="url(#paint0_linear)"/>
<path fill-rule="evenodd" clip-rule="evenodd" d="M82.9027 0.00619822C83.0017 0.00281986 83.101 0.000815026 83.2007 0.000202172C83.175 6.74463e-05 83.1494 0 83.1237 0C83.0495 0 82.9758 0.00208454 82.9027 0.00619822ZM84.1009 0.0327516C89.4961 0.457967 93.7417 4.9708 93.7417 10.4752C93.7417 16.2606 89.0518 20.9505 83.2664 20.9505C83.2399 20.9505 83.2133 20.9504 83.1868 20.9502C83.1658 20.9504 83.1447 20.9505 83.1237 20.9505H76.5228C75.1377 20.9505 73.858 21.6899 73.1662 22.8899L66.1349 35.0871C65.0662 36.9409 65.7027 39.3101 67.5565 40.3787C69.4103 41.4474 71.7795 40.8109 72.8481 38.9571L78.7614 28.6993H83.1237C91.0488 28.6993 97.4733 22.2747 97.4733 14.3497C97.4733 6.75299 91.5702 0.535076 84.1009 0.0327516Z" fill="url(#paint1_linear)"/>
<path opacity="0.3" fill-rule="evenodd" clip-rule="evenodd" d="M93.7417 10.4752C93.7417 4.9708 89.4961 0.457967 84.1009 0.0327516C84.4084 0.053434 84.7133 0.0838059 85.0152 0.123564C84.4878 0.0422086 83.9475 0 83.3973 0C83.0811 0 82.7682 0.0139404 82.4591 0.04124C88.487 0.544769 93.2222 5.59681 93.2222 11.7548C93.2222 12.7809 93.0908 13.7762 92.8438 14.725C93.4209 13.4262 93.7417 11.9882 93.7417 10.4752Z" fill="#160041"/>
<defs>
<linearGradient id="paint0_linear" x1="97.5474" y1="41.0541" x2="64.7967" y2="0.664729" gradientUnits="userSpaceOnUse">
<stop stop-color="#6107FF"/>
<stop offset="1" stop-color="#AD5CFF"/>
</linearGradient>
<linearGradient id="paint1_linear" x1="81.5449" y1="0" x2="81.5449" y2="40.8972" gradientUnits="userSpaceOnUse">
<stop stop-color="#FE39BF"/>
<stop offset="1" stop-color="#FFB573"/>
</linearGradient>
</defs>
</svg>
