<svg width="57" height="56" viewBox="0 0 57 56" fill="none" xmlns="http://www.w3.org/2000/svg">
<path d="M24.4184 2.2411L24.413 2.23928C23.7454 2.01322 23.013 2.02041 22.3698 2.24851L22.3597 2.25212L22.3596 2.25209L4.07907 8.62843C4.07895 8.62848 4.07883 8.62852 4.07871 8.62856C2.84796 9.05827 2.06771 10.1844 2.07356 11.3897C2.07356 11.39 2.07357 11.3904 2.07357 11.3907L2.19052 29.734C2.19052 29.7341 2.19052 29.7342 2.19052 29.7342C2.22342 34.7934 4.12785 39.6787 7.56831 43.4916L7.56886 43.4923C9.09416 45.184 11.0895 46.6851 13.7452 48.0627L24.4184 2.2411ZM24.4184 2.2411L42.7689 8.39797L42.7718 8.39891C44.0095 8.81221 44.8028 9.93104 44.8091 11.1305L44.8091 11.1328L44.926 29.4923V29.4925C44.9589 34.5433 43.1179 39.4509 39.7332 43.3034C38.2216 45.0199 36.244 46.5424 33.6188 47.9417L33.6167 47.9429L23.764 53.2098C23.7633 53.2102 23.7626 53.2106 23.7619 53.2109C23.7485 53.2176 23.7355 53.2204 23.7228 53.2206C23.7207 53.2206 23.7176 53.2203 23.7141 53.2194C23.7104 53.2186 23.7085 53.2176 23.7085 53.2176L23.7012 53.2138L13.747 48.0637L24.4184 2.2411Z" stroke="#D4D0DC" stroke-width="4.14706"/>
<path d="M42 40.5C49.0491 40.5 55 44.2052 55 48.5579C55 52.9106 49.0109 54 42 54C34.9509 54 29 52.8713 29 48.5203C29 44.1677 34.9873 40.5 42 40.5ZM42 22C46.7746 22 50.6019 25.767 50.6019 30.4663C50.6019 35.1656 46.7746 38.9325 42 38.9325C37.2254 38.9325 33.3981 35.1656 33.3981 30.4663C33.3981 25.767 37.2254 22 42 22Z" fill="#D4D0DC"/>
<path fill-rule="evenodd" clip-rule="evenodd" d="M52.1982 41.1974C54.8709 42.8565 57 45.4111 57 48.5579C57 50.1586 56.4292 51.5316 55.4123 52.6139C54.4399 53.649 53.1427 54.3336 51.7796 54.8024C49.0773 55.7319 45.5497 56 42 56C38.4278 56 34.898 55.7217 32.1981 54.7802C30.8359 54.3052 29.5434 53.614 28.576 52.5748C27.5655 51.4892 27 50.1167 27 48.5203C27 45.3659 29.1474 42.821 31.8218 41.1747C33.1201 40.3756 34.622 39.7307 36.2531 39.2746C33.3331 37.4217 31.3981 34.1885 31.3981 30.4663C31.3981 24.6325 36.1509 20 42 20C47.8491 20 52.6019 24.6325 52.6019 30.4663C52.6019 34.1894 50.666 37.4233 47.7447 39.276C49.3866 39.7366 50.8957 40.389 52.1982 41.1974ZM39.6737 38.6233C36.0408 37.6323 33.3981 34.3711 33.3981 30.4663C33.3981 25.767 37.2254 22 42 22C46.7746 22 50.6019 25.767 50.6019 30.4663C50.6019 34.3713 47.9591 37.6325 44.326 38.6234C43.587 38.8249 42.807 38.9325 42 38.9325C41.1929 38.9325 40.4128 38.8249 39.6737 38.6233ZM39.5403 40.6518C33.6429 41.3856 29 44.6874 29 48.5203C29 52.8713 34.9509 54 42 54C49.0109 54 55 52.9106 55 48.5579C55 44.7226 50.3798 41.39 44.4591 40.6519C43.6604 40.5524 42.8379 40.5 42 40.5C41.1627 40.5 40.3399 40.5523 39.5403 40.6518Z" fill="white"/>
</svg>
