<svg width="57" height="56" viewBox="0 0 57 56" fill="none" xmlns="http://www.w3.org/2000/svg">
<path fill-rule="evenodd" clip-rule="evenodd" d="M23.748 4.20328C23.5177 4.12531 23.2638 4.13154 23.0629 4.20278L23.0527 4.20638L4.76233 10.5862C4.76209 10.5862 4.76257 10.5861 4.76233 10.5862C4.34379 10.7326 4.14611 11.0849 4.14706 11.3786C4.14706 11.379 4.14707 11.3795 4.14707 11.3799L4.26401 29.7205C4.26401 29.7207 4.264 29.7204 4.26401 29.7205C4.29362 34.2649 6.00385 38.6626 9.10778 42.1026L9.10888 42.1038C10.4341 43.5736 12.2151 44.933 14.6992 46.2217C14.7 46.2221 14.7009 46.2226 14.7017 46.223L23.7135 50.8856L32.6434 46.1119C35.0973 44.8039 36.8624 43.4258 38.1769 41.9332C41.2296 38.4577 42.882 34.041 42.8526 29.506L42.7356 11.1414C42.7341 10.8571 42.5363 10.5064 42.115 10.3657L42.1094 10.3638L23.748 4.20328ZM41.2909 44.672C39.5819 46.6131 37.3915 48.2804 34.5942 49.7715L24.7301 55.0446C24.4211 55.2072 24.0815 55.2913 23.7392 55.2941C23.3968 55.2967 23.0545 55.2154 22.7483 55.0554L12.7923 49.9044C9.96447 48.4377 7.75451 46.7948 6.02884 44.8807C2.25185 40.6948 0.153218 35.3214 0.117035 29.7475L6.68408e-05 11.4016C-0.0109988 9.2842 1.35283 7.38373 3.3958 6.67071L21.6767 0.294243C22.7622 -0.0907305 23.973 -0.0988638 25.078 0.275266L43.4285 6.43214C45.4826 7.11804 46.8715 9.00496 46.8826 11.1196L46.9995 29.4791C47.0357 35.0449 45.0067 40.4427 41.2909 44.672Z" fill="#160041"/>
<path d="M42 40.5C49.0491 40.5 55 44.2052 55 48.5579C55 52.9106 49.0109 54 42 54C34.9509 54 29 52.8713 29 48.5203C29 44.1677 34.9873 40.5 42 40.5ZM42 22C46.7746 22 50.6019 25.767 50.6019 30.4663C50.6019 35.1656 46.7746 38.9325 42 38.9325C37.2254 38.9325 33.3981 35.1656 33.3981 30.4663C33.3981 25.767 37.2254 22 42 22Z" fill="url(#paint0_linear)"/>
<path fill-rule="evenodd" clip-rule="evenodd" d="M52.1982 41.1974C54.8709 42.8565 57 45.4111 57 48.5579C57 50.1586 56.4292 51.5316 55.4123 52.6139C54.4399 53.649 53.1427 54.3336 51.7796 54.8024C49.0773 55.7319 45.5497 56 42 56C38.4278 56 34.898 55.7217 32.1981 54.7802C30.8359 54.3052 29.5434 53.614 28.576 52.5748C27.5655 51.4892 27 50.1167 27 48.5203C27 45.3659 29.1474 42.821 31.8218 41.1747C33.1201 40.3756 34.622 39.7307 36.2531 39.2746C33.3331 37.4217 31.3981 34.1885 31.3981 30.4663C31.3981 24.6325 36.1509 20 42 20C47.8491 20 52.6019 24.6325 52.6019 30.4663C52.6019 34.1894 50.666 37.4233 47.7447 39.276C49.3866 39.7366 50.8957 40.389 52.1982 41.1974ZM39.6737 38.6233C36.0408 37.6323 33.3981 34.3711 33.3981 30.4663C33.3981 25.767 37.2254 22 42 22C46.7746 22 50.6019 25.767 50.6019 30.4663C50.6019 34.3713 47.9591 37.6325 44.326 38.6234C43.587 38.8249 42.807 38.9325 42 38.9325C41.1929 38.9325 40.4128 38.8249 39.6737 38.6233ZM39.5403 40.6518C33.6429 41.3856 29 44.6874 29 48.5203C29 52.8713 34.9509 54 42 54C49.0109 54 55 52.9106 55 48.5579C55 44.7226 50.3798 41.39 44.4591 40.6519C43.6604 40.5524 42.8379 40.5 42 40.5C41.1627 40.5 40.3399 40.5523 39.5403 40.6518Z" fill="white"/>
<defs>
<linearGradient id="paint0_linear" x1="41.9995" y1="53.9979" x2="41.9995" y2="21.9981" gradientUnits="userSpaceOnUse">
<stop stop-color="#20B038"/>
<stop offset="1" stop-color="#60D66A"/>
</linearGradient>
</defs>
</svg>
